<mxfile host="app.diagrams.net" modified="2022-04-06T07:00:11.597Z" agent="5.0 (Windows NT 10.0; WOW64) AppleWebKit/537.36 (KHTML, like Gecko) Chrome/86.0.4240.198 Safari/537.36" etag="uQqVHok_7gJJ1Cqpj48y" version="17.4.0" type="gitlab">
  <diagram id="tdVT-kKogsi9hRZjinZc" name="第 1 页">
    <mxGraphModel dx="1381" dy="761" grid="1" gridSize="10" guides="1" tooltips="1" connect="1" arrows="1" fold="1" page="1" pageScale="1" pageWidth="1169" pageHeight="1654" math="0" shadow="0">
      <root>
        <mxCell id="0" />
        <mxCell id="1" parent="0" />
        <mxCell id="i73fPiU2hm8ARr15SIhT-1" value="feature/支付宝功能开发分支" style="rounded=0;whiteSpace=wrap;html=1;" vertex="1" parent="1">
          <mxGeometry x="610" y="290" width="160" height="60" as="geometry" />
        </mxCell>
        <mxCell id="i73fPiU2hm8ARr15SIhT-7" value="feature/微信功能开发分支" style="rounded=0;whiteSpace=wrap;html=1;" vertex="1" parent="1">
          <mxGeometry x="610" y="400" width="160" height="60" as="geometry" />
        </mxCell>
        <mxCell id="i73fPiU2hm8ARr15SIhT-8" value="dev环境版本" style="ellipse;whiteSpace=wrap;html=1;" vertex="1" parent="1">
          <mxGeometry x="430" y="340" width="120" height="80" as="geometry" />
        </mxCell>
        <mxCell id="i73fPiU2hm8ARr15SIhT-9" value="线上版本220406" style="rounded=0;whiteSpace=wrap;html=1;" vertex="1" parent="1">
          <mxGeometry x="200" y="180" width="120" height="60" as="geometry" />
        </mxCell>
        <mxCell id="i73fPiU2hm8ARr15SIhT-10" value="预发布分支" style="rounded=0;whiteSpace=wrap;html=1;" vertex="1" parent="1">
          <mxGeometry x="200" y="270" width="120" height="60" as="geometry" />
        </mxCell>
        <mxCell id="i73fPiU2hm8ARr15SIhT-11" value="dev" style="rounded=0;whiteSpace=wrap;html=1;" vertex="1" parent="1">
          <mxGeometry x="200" y="360" width="120" height="60" as="geometry" />
        </mxCell>
        <mxCell id="i73fPiU2hm8ARr15SIhT-12" value="master" style="rounded=0;whiteSpace=wrap;html=1;" vertex="1" parent="1">
          <mxGeometry x="200" y="450" width="120" height="60" as="geometry" />
        </mxCell>
        <mxCell id="i73fPiU2hm8ARr15SIhT-14" value="" style="endArrow=classic;html=1;rounded=0;exitX=1;exitY=0.5;exitDx=0;exitDy=0;" edge="1" parent="1" source="i73fPiU2hm8ARr15SIhT-8">
          <mxGeometry width="50" height="50" relative="1" as="geometry">
            <mxPoint x="560" y="400" as="sourcePoint" />
            <mxPoint x="610" y="350" as="targetPoint" />
          </mxGeometry>
        </mxCell>
        <mxCell id="i73fPiU2hm8ARr15SIhT-15" value="" style="endArrow=classic;html=1;rounded=0;" edge="1" parent="1">
          <mxGeometry width="50" height="50" relative="1" as="geometry">
            <mxPoint x="550" y="380" as="sourcePoint" />
            <mxPoint x="610" y="350" as="targetPoint" />
          </mxGeometry>
        </mxCell>
        <mxCell id="i73fPiU2hm8ARr15SIhT-16" value="" style="endArrow=classic;html=1;rounded=0;entryX=0;entryY=0.25;entryDx=0;entryDy=0;" edge="1" parent="1" target="i73fPiU2hm8ARr15SIhT-7">
          <mxGeometry width="50" height="50" relative="1" as="geometry">
            <mxPoint x="550" y="380" as="sourcePoint" />
            <mxPoint x="610" y="350" as="targetPoint" />
          </mxGeometry>
        </mxCell>
        <mxCell id="i73fPiU2hm8ARr15SIhT-18" value="在功能开发分支提交commit,然后切换到dev环境版本拉取最新代码，最后把鼠标移至对应的功能开发分支右键合并到dev环境版本" style="text;html=1;strokeColor=none;fillColor=none;align=center;verticalAlign=middle;whiteSpace=wrap;rounded=0;" vertex="1" parent="1">
          <mxGeometry x="770" y="305" width="360" height="30" as="geometry" />
        </mxCell>
        <mxCell id="i73fPiU2hm8ARr15SIhT-19" value="测试环境服务器上git pull" style="text;html=1;strokeColor=none;fillColor=none;align=center;verticalAlign=middle;whiteSpace=wrap;rounded=0;" vertex="1" parent="1">
          <mxGeometry x="420" y="300" width="140" height="30" as="geometry" />
        </mxCell>
        <mxCell id="i73fPiU2hm8ARr15SIhT-20" value="预发布220501" style="rounded=0;whiteSpace=wrap;html=1;" vertex="1" parent="1">
          <mxGeometry x="10" y="240" width="120" height="40" as="geometry" />
        </mxCell>
        <mxCell id="i73fPiU2hm8ARr15SIhT-21" value="预发布220601" style="rounded=0;whiteSpace=wrap;html=1;" vertex="1" parent="1">
          <mxGeometry x="10" y="310" width="120" height="40" as="geometry" />
        </mxCell>
        <mxCell id="i73fPiU2hm8ARr15SIhT-23" style="edgeStyle=orthogonalEdgeStyle;rounded=0;orthogonalLoop=1;jettySize=auto;html=1;exitX=0.5;exitY=1;exitDx=0;exitDy=0;" edge="1" parent="1" source="i73fPiU2hm8ARr15SIhT-20" target="i73fPiU2hm8ARr15SIhT-20">
          <mxGeometry relative="1" as="geometry" />
        </mxCell>
        <mxCell id="i73fPiU2hm8ARr15SIhT-24" value="预发布220701" style="rounded=0;whiteSpace=wrap;html=1;" vertex="1" parent="1">
          <mxGeometry x="10" y="380" width="120" height="40" as="geometry" />
        </mxCell>
        <mxCell id="i73fPiU2hm8ARr15SIhT-29" value="" style="endArrow=classic;html=1;rounded=0;exitX=0;exitY=0.5;exitDx=0;exitDy=0;entryX=1;entryY=0.5;entryDx=0;entryDy=0;" edge="1" parent="1" source="i73fPiU2hm8ARr15SIhT-10" target="i73fPiU2hm8ARr15SIhT-20">
          <mxGeometry width="50" height="50" relative="1" as="geometry">
            <mxPoint x="560" y="450" as="sourcePoint" />
            <mxPoint x="610" y="400" as="targetPoint" />
          </mxGeometry>
        </mxCell>
        <mxCell id="i73fPiU2hm8ARr15SIhT-32" value="" style="endArrow=classic;html=1;rounded=0;entryX=1;entryY=0.5;entryDx=0;entryDy=0;" edge="1" parent="1" target="i73fPiU2hm8ARr15SIhT-21">
          <mxGeometry width="50" height="50" relative="1" as="geometry">
            <mxPoint x="200" y="300" as="sourcePoint" />
            <mxPoint x="610" y="400" as="targetPoint" />
          </mxGeometry>
        </mxCell>
        <mxCell id="i73fPiU2hm8ARr15SIhT-33" value="" style="endArrow=classic;html=1;rounded=0;exitX=0;exitY=0.5;exitDx=0;exitDy=0;entryX=1;entryY=0.25;entryDx=0;entryDy=0;" edge="1" parent="1" source="i73fPiU2hm8ARr15SIhT-10" target="i73fPiU2hm8ARr15SIhT-24">
          <mxGeometry width="50" height="50" relative="1" as="geometry">
            <mxPoint x="560" y="450" as="sourcePoint" />
            <mxPoint x="610" y="400" as="targetPoint" />
          </mxGeometry>
        </mxCell>
        <mxCell id="i73fPiU2hm8ARr15SIhT-36" value="线上问题修复分支(可存在多个版本)" style="text;html=1;strokeColor=none;fillColor=none;align=center;verticalAlign=middle;whiteSpace=wrap;rounded=0;labelBackgroundColor=#FF2121;fontColor=#4D0805;" vertex="1" parent="1">
          <mxGeometry x="160" y="150" width="210" height="30" as="geometry" />
        </mxCell>
        <mxCell id="i73fPiU2hm8ARr15SIhT-37" value="预发布可存在多个版本" style="text;html=1;strokeColor=none;fillColor=none;align=center;verticalAlign=middle;whiteSpace=wrap;rounded=0;labelBackgroundColor=#FF2121;fontColor=#4D0805;" vertex="1" parent="1">
          <mxGeometry x="190" y="245" width="140" height="30" as="geometry" />
        </mxCell>
        <mxCell id="i73fPiU2hm8ARr15SIhT-40" value="" style="endArrow=classic;html=1;rounded=0;fontColor=#4D0805;entryX=1;entryY=0.5;entryDx=0;entryDy=0;" edge="1" parent="1" target="i73fPiU2hm8ARr15SIhT-9">
          <mxGeometry width="50" height="50" relative="1" as="geometry">
            <mxPoint x="420" y="130" as="sourcePoint" />
            <mxPoint x="610" y="430" as="targetPoint" />
          </mxGeometry>
        </mxCell>
        <mxCell id="i73fPiU2hm8ARr15SIhT-41" value="通过sourcetree可查看该分支修复的修改文件，可直接上线" style="text;html=1;strokeColor=none;fillColor=none;align=center;verticalAlign=middle;whiteSpace=wrap;rounded=0;labelBackgroundColor=#FF2121;fontColor=#4D0805;" vertex="1" parent="1">
          <mxGeometry x="390" y="110" width="370" height="30" as="geometry" />
        </mxCell>
        <mxCell id="i73fPiU2hm8ARr15SIhT-53" value="" style="endArrow=classic;html=1;rounded=0;fontColor=#4D0805;exitX=1;exitY=0.75;exitDx=0;exitDy=0;entryX=1.008;entryY=0.383;entryDx=0;entryDy=0;entryPerimeter=0;" edge="1" parent="1" source="i73fPiU2hm8ARr15SIhT-9" target="i73fPiU2hm8ARr15SIhT-11">
          <mxGeometry relative="1" as="geometry">
            <mxPoint x="500" y="420" as="sourcePoint" />
            <mxPoint x="340" y="380" as="targetPoint" />
            <Array as="points">
              <mxPoint x="360" y="300" />
            </Array>
          </mxGeometry>
        </mxCell>
        <mxCell id="i73fPiU2hm8ARr15SIhT-54" value="Label" style="edgeLabel;resizable=0;html=1;align=center;verticalAlign=middle;labelBackgroundColor=#FF2121;fontColor=#4D0805;" connectable="0" vertex="1" parent="i73fPiU2hm8ARr15SIhT-53">
          <mxGeometry relative="1" as="geometry" />
        </mxCell>
        <mxCell id="i73fPiU2hm8ARr15SIhT-55" value="Source" style="edgeLabel;resizable=0;html=1;align=left;verticalAlign=bottom;labelBackgroundColor=#FF2121;fontColor=#4D0805;" connectable="0" vertex="1" parent="i73fPiU2hm8ARr15SIhT-53">
          <mxGeometry x="-1" relative="1" as="geometry" />
        </mxCell>
        <mxCell id="i73fPiU2hm8ARr15SIhT-62" value="每次线上版本有变动修复后合并到master" style="endArrow=classic;html=1;rounded=0;fontColor=#4D0805;entryX=1;entryY=0.75;entryDx=0;entryDy=0;" edge="1" parent="1" target="i73fPiU2hm8ARr15SIhT-12">
          <mxGeometry relative="1" as="geometry">
            <mxPoint x="330" y="380" as="sourcePoint" />
            <mxPoint x="330.96000000000004" y="392.98" as="targetPoint" />
            <Array as="points">
              <mxPoint x="360" y="440" />
            </Array>
          </mxGeometry>
        </mxCell>
        <mxCell id="i73fPiU2hm8ARr15SIhT-63" value="Label" style="edgeLabel;resizable=0;html=1;align=center;verticalAlign=middle;labelBackgroundColor=#FF2121;fontColor=#4D0805;" connectable="0" vertex="1" parent="i73fPiU2hm8ARr15SIhT-62">
          <mxGeometry relative="1" as="geometry" />
        </mxCell>
        <mxCell id="i73fPiU2hm8ARr15SIhT-64" value="Source" style="edgeLabel;resizable=0;html=1;align=left;verticalAlign=bottom;labelBackgroundColor=#FF2121;fontColor=#4D0805;" connectable="0" vertex="1" parent="i73fPiU2hm8ARr15SIhT-62">
          <mxGeometry x="-1" relative="1" as="geometry" />
        </mxCell>
        <mxCell id="i73fPiU2hm8ARr15SIhT-69" value="Text" style="text;html=1;strokeColor=none;fillColor=none;align=center;verticalAlign=middle;whiteSpace=wrap;rounded=0;labelBackgroundColor=#FF2121;fontColor=#4D0805;" vertex="1" parent="1">
          <mxGeometry x="550" y="400" width="60" height="30" as="geometry" />
        </mxCell>
        <mxCell id="i73fPiU2hm8ARr15SIhT-73" value="每次线上问题修复都合并到dev" style="text;html=1;strokeColor=none;fillColor=none;align=center;verticalAlign=middle;whiteSpace=wrap;rounded=0;labelBackgroundColor=#FF2121;fontColor=#4D0805;" vertex="1" parent="1">
          <mxGeometry x="330" y="250" width="210" height="30" as="geometry" />
        </mxCell>
      </root>
    </mxGraphModel>
  </diagram>
</mxfile>
